^C:\USERS\BELLCHAN\DOCUMENTS\VISUAL STUDIO 2013\PROJECTS\WIN32PROJECT2\CREATINGWINDOWOPENGL\SOURCE.CPP
/c /I"D:\OpenGL Nelzkie\Pre compiled binaries\glew-1.13.0-win32\glew-1.13.0\include" /I"D:\OpenGL Nelzkie\Pre compiled binaries\glfw-3.1.1.bin.WIN32\glfw-3.1.1.bin.WIN32\include" /ZI /nologo /W3 /WX- /sdl /Od /Oy- /D GLEW_STATIC /D WIN32 /D _DEBUG /D _CONSOLE /D _LIB /D _UNICODE /D UNICODE /Gm /EHsc /RTC1 /MDd /GS /fp:precise /Zc:wchar_t /Zc:forScope /Fo"DEBUG\\" /Fd"DEBUG\VC120.PDB" /Gd /TP /analyze- C:\USERS\BELLCHAN\DOCUMENTS\VISUAL STUDIO 2013\PROJECTS\WIN32PROJECT2\CREATINGWINDOWOPENGL\SOURCE.CPP
^D:\OPENGL NELZKIE\GETTING STARTED\HELLO TRIANGLE\CREATINGWINDOWOPENGL\SOURCE.CPP
/c /I"D:\OpenGL Nelzkie\Pre compiled binaries\glew-1.13.0-win32\glew-1.13.0\include" /I"D:\OpenGL Nelzkie\Pre compiled binaries\glfw-3.1.1.bin.WIN32\glfw-3.1.1.bin.WIN32\include" /ZI /nologo /W3 /WX- /sdl /Od /Oy- /D GLEW_STATIC /D WIN32 /D _DEBUG /D _CONSOLE /D _LIB /D _UNICODE /D UNICODE /Gm /EHsc /RTC1 /MDd /GS /fp:precise /Zc:wchar_t /Zc:forScope /Fo"DEBUG\\" /Fd"DEBUG\VC120.PDB" /Gd /TP /analyze- D:\OPENGL NELZKIE\GETTING STARTED\HELLO TRIANGLE\CREATINGWINDOWOPENGL\SOURCE.CPP
