^C:\USERS\BELLCHAN\DOCUMENTS\VISUAL STUDIO 2013\PROJECTS\WIN32PROJECT2\CREATINGWINDOWOPENGL\DEBUG\SOURCE.OBJ
C:\USERS\BELLCHAN\DOCUMENTS\VISUAL STUDIO 2013\PROJECTS\WIN32PROJECT2\DEBUG\CREATINGWINDOWOPENGL.ILK
C:\USERS\BELLCHAN\DOCUMENTS\VISUAL STUDIO 2013\PROJECTS\WIN32PROJECT2\DEBUG\CREATINGWINDOWOPENGL.EXE
C:\USERS\BELLCHAN\DOCUMENTS\VISUAL STUDIO 2013\PROJECTS\WIN32PROJECT2\DEBUG\CREATINGWINDOWOPENGL.PDB
^D:\OPENGL NELZKIE\GETTING STARTED\HELLO TRIANGLE\CREATINGWINDOWOPENGL\DEBUG\SOURCE.OBJ
D:\OPENGL NELZKIE\GETTING STARTED\HELLO TRIANGLE\DEBUG\CREATINGWINDOWOPENGL.ILK
D:\OPENGL NELZKIE\GETTING STARTED\HELLO TRIANGLE\DEBUG\CREATINGWINDOWOPENGL.EXE
D:\OPENGL NELZKIE\GETTING STARTED\HELLO TRIANGLE\DEBUG\CREATINGWINDOWOPENGL.PDB
