^D:\OPENGL NELZKIE\GETTING STARTED\HELLO TRIANGLE\WIN32PROJECT2\HELLOTRIANGLE.CPP
/c /I"D:\OpenGL Nelzkie\Pre compiled binaries\glew-1.13.0-win32\glew-1.13.0\include" /I"D:\OpenGL Nelzkie\Pre compiled binaries\glfw-3.1.1.bin.WIN32\glfw-3.1.1.bin.WIN32\include" /ZI /nologo /W3 /WX- /sdl /Od /Oy- /D WIN32 /D _DEBUG /D _WINDOWS /D GLEW_STATIC /D _UNICODE /D UNICODE /Gm /EHsc /RTC1 /MDd /GS /fp:precise /Zc:wchar_t /Zc:forScope /Fo"DEBUG\\" /Fd"DEBUG\VC120.PDB" /Gd /TP /analyze- D:\OPENGL NELZKIE\GETTING STARTED\HELLO TRIANGLE\WIN32PROJECT2\HELLOTRIANGLE.CPP
^D:\OPENGL NELZKIE\GETTING STARTED\HELLO TRIANGLE - PART_2_USING INDICES\WIN32PROJECT2\HELLOTRIANGLE.CPP
/c /I"D:\OpenGL Nelzkie\Pre compiled binaries\glew-1.13.0-win32\glew-1.13.0\include" /I"D:\OpenGL Nelzkie\Pre compiled binaries\glfw-3.1.1.bin.WIN32\glfw-3.1.1.bin.WIN32\include" /ZI /nologo /W3 /WX- /sdl /Od /Oy- /D WIN32 /D _DEBUG /D _WINDOWS /D GLEW_STATIC /D _UNICODE /D UNICODE /Gm /EHsc /RTC1 /MDd /GS /fp:precise /Zc:wchar_t /Zc:forScope /Fo"DEBUG\\" /Fd"DEBUG\VC120.PDB" /Gd /TP /analyze- D:\OPENGL NELZKIE\GETTING STARTED\HELLO TRIANGLE - PART_2_USING INDICES\WIN32PROJECT2\HELLOTRIANGLE.CPP
^D:\OPENGL NELZKIE\GETTING STARTED\SHADERS\WIN32PROJECT2\HELLOTRIANGLE.CPP
/c /I"D:\OpenGL Nelzkie\Pre compiled binaries\glew-1.13.0-win32\glew-1.13.0\include" /I"D:\OpenGL Nelzkie\Pre compiled binaries\glfw-3.1.1.bin.WIN32\glfw-3.1.1.bin.WIN32\include" /ZI /nologo /W3 /WX- /sdl /Od /Oy- /D WIN32 /D _DEBUG /D _WINDOWS /D GLEW_STATIC /D _UNICODE /D UNICODE /Gm /EHsc /RTC1 /MDd /GS /fp:precise /Zc:wchar_t /Zc:forScope /Fo"DEBUG\\" /Fd"DEBUG\VC120.PDB" /Gd /TP /analyze- D:\OPENGL NELZKIE\GETTING STARTED\SHADERS\WIN32PROJECT2\HELLOTRIANGLE.CPP
^D:\OPENGL NELZKIE\GETTING STARTED\SHADERS - PART_2_MORE_ATTRIBUTES\WIN32PROJECT2\HELLOTRIANGLE.CPP
/c /I"D:\OpenGL Nelzkie\Pre compiled binaries\glew-1.13.0-win32\glew-1.13.0\include" /I"D:\OpenGL Nelzkie\Pre compiled binaries\glfw-3.1.1.bin.WIN32\glfw-3.1.1.bin.WIN32\include" /ZI /nologo /W3 /WX- /sdl /Od /Oy- /D WIN32 /D _DEBUG /D _WINDOWS /D GLEW_STATIC /D _UNICODE /D UNICODE /Gm /EHsc /RTC1 /MDd /GS /fp:precise /Zc:wchar_t /Zc:forScope /Fo"DEBUG\\" /Fd"DEBUG\VC120.PDB" /Gd /TP /analyze- D:\OPENGL NELZKIE\GETTING STARTED\SHADERS - PART_2_MORE_ATTRIBUTES\WIN32PROJECT2\HELLOTRIANGLE.CPP
^D:\OPENGL NELZKIE\GETTING STARTED\SHADERS - PART_2_MORE_ATTRIBUTES - COPY\WIN32PROJECT2\HELLOTRIANGLE.CPP
/c /I"C:\Users\Bellchan\Downloads\Compressed\soil\Simple OpenGL Image Library\src" /I"D:\OpenGL Nelzkie\Pre compiled binaries\glew-1.13.0-win32\glew-1.13.0\include" /I"D:\OpenGL Nelzkie\Pre compiled binaries\glfw-3.1.1.bin.WIN32\glfw-3.1.1.bin.WIN32\include" /ZI /nologo /W3 /WX- /sdl /Od /Oy- /D WIN32 /D _DEBUG /D _WINDOWS /D GLEW_STATIC /D _UNICODE /D UNICODE /Gm /EHsc /RTC1 /MDd /GS /fp:precise /Zc:wchar_t /Zc:forScope /Fo"DEBUG\\" /Fd"DEBUG\VC120.PDB" /Gd /TP /analyze- D:\OPENGL NELZKIE\GETTING STARTED\SHADERS - PART_2_MORE_ATTRIBUTES - COPY\WIN32PROJECT2\HELLOTRIANGLE.CPP
^D:\OPENGL NELZKIE\GETTING STARTED\SHADERS - PART_3_TEXTURE_MORE_TEXTURES\WIN32PROJECT2\HELLOTRIANGLE.CPP
/c /I"C:\Users\Bellchan\Downloads\Compressed\soil\Simple OpenGL Image Library\src" /I"D:\OpenGL Nelzkie\Pre compiled binaries\glew-1.13.0-win32\glew-1.13.0\include" /I"D:\OpenGL Nelzkie\Pre compiled binaries\glfw-3.1.1.bin.WIN32\glfw-3.1.1.bin.WIN32\include" /ZI /nologo /W3 /WX- /sdl /Od /Oy- /D WIN32 /D _DEBUG /D _WINDOWS /D GLEW_STATIC /D _UNICODE /D UNICODE /Gm /EHsc /RTC1 /MDd /GS /fp:precise /Zc:wchar_t /Zc:forScope /Fo"DEBUG\\" /Fd"DEBUG\VC120.PDB" /Gd /TP /analyze- D:\OPENGL NELZKIE\GETTING STARTED\SHADERS - PART_3_TEXTURE_MORE_TEXTURES\WIN32PROJECT2\HELLOTRIANGLE.CPP
^D:\OPENGL NELZKIE\GETTING STARTED\OPENGL- PART_4_MATHEMATICS\WIN32PROJECT2\HELLOTRIANGLE.CPP
/c /I"D:\OpenGL Nelzkie\glm-0.9.7.1\glm" /I"C:\Users\Bellchan\Downloads\Compressed\soil\Simple OpenGL Image Library\src" /I"D:\OpenGL Nelzkie\Pre compiled binaries\glew-1.13.0-win32\glew-1.13.0\include" /I"D:\OpenGL Nelzkie\Pre compiled binaries\glfw-3.1.1.bin.WIN32\glfw-3.1.1.bin.WIN32\include" /ZI /nologo /W3 /WX- /sdl /Od /Oy- /D WIN32 /D _DEBUG /D _WINDOWS /D GLEW_STATIC /D _UNICODE /D UNICODE /Gm /EHsc /RTC1 /MDd /GS /fp:precise /Zc:wchar_t /Zc:forScope /Fo"DEBUG\\" /Fd"DEBUG\VC120.PDB" /Gd /TP /analyze- D:\OPENGL NELZKIE\GETTING STARTED\OPENGL- PART_4_MATHEMATICS\WIN32PROJECT2\HELLOTRIANGLE.CPP
^D:\OPENGL NELZKIE\GETTING STARTED\OPENGL- PART_5_COORDINATE_SYSTEM\WIN32PROJECT2\HELLOTRIANGLE.CPP
/c /I"D:\OpenGL Nelzkie\glm-0.9.7.1\glm" /I"C:\Users\Bellchan\Downloads\Compressed\soil\Simple OpenGL Image Library\src" /I"D:\OpenGL Nelzkie\Pre compiled binaries\glew-1.13.0-win32\glew-1.13.0\include" /I"D:\OpenGL Nelzkie\Pre compiled binaries\glfw-3.1.1.bin.WIN32\glfw-3.1.1.bin.WIN32\include" /ZI /nologo /W3 /WX- /sdl /Od /Oy- /D WIN32 /D _DEBUG /D _WINDOWS /D GLEW_STATIC /D _UNICODE /D UNICODE /Gm /EHsc /RTC1 /MDd /GS /fp:precise /Zc:wchar_t /Zc:forScope /Fo"DEBUG\\" /Fd"DEBUG\VC120.PDB" /Gd /TP /analyze- D:\OPENGL NELZKIE\GETTING STARTED\OPENGL- PART_5_COORDINATE_SYSTEM\WIN32PROJECT2\HELLOTRIANGLE.CPP
