^D:\OPENGL NELZKIE\GETTING STARTED\HELLO TRIANGLE\WIN32PROJECT2\DEBUG\HELLOTRIANGLE.OBJ
D:\OPENGL NELZKIE\GETTING STARTED\HELLO TRIANGLE\DEBUG\HELLOTRIANGLE.ILK
D:\OPENGL NELZKIE\GETTING STARTED\HELLO TRIANGLE\DEBUG\HELLOTRIANGLE.EXE
D:\OPENGL NELZKIE\GETTING STARTED\HELLO TRIANGLE\DEBUG\HELLOTRIANGLE.PDB
^D:\OPENGL NELZKIE\GETTING STARTED\HELLO TRIANGLE - PART_2_USING INDICES\WIN32PROJECT2\DEBUG\HELLOTRIANGLE.OBJ
D:\OPENGL NELZKIE\GETTING STARTED\HELLO TRIANGLE - PART_2_USING INDICES\DEBUG\HELLOTRIANGLE.ILK
D:\OPENGL NELZKIE\GETTING STARTED\HELLO TRIANGLE - PART_2_USING INDICES\DEBUG\HELLOTRIANGLE.EXE
D:\OPENGL NELZKIE\GETTING STARTED\HELLO TRIANGLE - PART_2_USING INDICES\DEBUG\HELLOTRIANGLE.PDB
^D:\OPENGL NELZKIE\GETTING STARTED\SHADERS - PART_2_MORE_ATTRIBUTES\WIN32PROJECT2\DEBUG\HELLOTRIANGLE.OBJ
D:\OPENGL NELZKIE\GETTING STARTED\SHADERS - PART_2_MORE_ATTRIBUTES\DEBUG\HELLOTRIANGLE.ILK
D:\OPENGL NELZKIE\GETTING STARTED\SHADERS - PART_2_MORE_ATTRIBUTES\DEBUG\HELLOTRIANGLE.EXE
D:\OPENGL NELZKIE\GETTING STARTED\SHADERS - PART_2_MORE_ATTRIBUTES\DEBUG\HELLOTRIANGLE.PDB
^D:\OPENGL NELZKIE\GETTING STARTED\SHADERS - PART_3_TEXTURE_MORE_TEXTURES\WIN32PROJECT2\DEBUG\HELLOTRIANGLE.OBJ
D:\OPENGL NELZKIE\GETTING STARTED\SHADERS - PART_3_TEXTURE_MORE_TEXTURES\DEBUG\HELLOTRIANGLE.ILK
D:\OPENGL NELZKIE\GETTING STARTED\SHADERS - PART_3_TEXTURE_MORE_TEXTURES\DEBUG\HELLOTRIANGLE.EXE
D:\OPENGL NELZKIE\GETTING STARTED\SHADERS - PART_3_TEXTURE_MORE_TEXTURES\DEBUG\HELLOTRIANGLE.PDB
^D:\OPENGL NELZKIE\GETTING STARTED\OPENGL- PART_5_COORDINATE_SYSTEM\WIN32PROJECT2\DEBUG\HELLOTRIANGLE.OBJ
D:\OPENGL NELZKIE\GETTING STARTED\OPENGL- PART_5_COORDINATE_SYSTEM\DEBUG\HELLOTRIANGLE.ILK
D:\OPENGL NELZKIE\GETTING STARTED\OPENGL- PART_5_COORDINATE_SYSTEM\DEBUG\HELLOTRIANGLE.EXE
D:\OPENGL NELZKIE\GETTING STARTED\OPENGL- PART_5_COORDINATE_SYSTEM\DEBUG\HELLOTRIANGLE.PDB
