^D:\OPENGL NELZKIE\GETTING STARTED\HELLO TRIANGLE\WIN32PROJECT2\DEBUG\HELLOTRIANGLE.OBJ
/OUT:"D:\OPENGL NELZKIE\GETTING STARTED\HELLO TRIANGLE\DEBUG\HELLOTRIANGLE.EXE" /INCREMENTAL /NOLOGO /LIBPATH:"D:\OpenGL Nelzkie\Pre compiled binaries\glew-1.13.0-win32\glew-1.13.0\lib\Release\Win32" /LIBPATH:"D:\OpenGL Nelzkie\Pre compiled binaries\glfw-3.1.1.bin.WIN32\glfw-3.1.1.bin.WIN32\lib-vc2013" opengl32.lib glfw3.lib glew32s.lib kernel32.lib user32.lib gdi32.lib winspool.lib comdlg32.lib advapi32.lib shell32.lib ole32.lib oleaut32.lib uuid.lib odbc32.lib odbccp32.lib /MANIFEST /MANIFESTUAC:"level='asInvoker' uiAccess='false'" /manifest:embed /DEBUG /PDB:"D:\OPENGL NELZKIE\GETTING STARTED\HELLO TRIANGLE\DEBUG\HELLOTRIANGLE.PDB" /SUBSYSTEM:CONSOLE /TLBID:1 /DYNAMICBASE /NXCOMPAT /IMPLIB:"D:\OPENGL NELZKIE\GETTING STARTED\HELLO TRIANGLE\DEBUG\HELLOTRIANGLE.LIB" /MACHINE:X86 DEBUG\HELLOTRIANGLE.OBJ
^D:\OPENGL NELZKIE\GETTING STARTED\HELLO TRIANGLE - PART_2_USING INDICES\WIN32PROJECT2\DEBUG\HELLOTRIANGLE.OBJ
/OUT:"D:\OPENGL NELZKIE\GETTING STARTED\HELLO TRIANGLE - PART_2_USING INDICES\DEBUG\HELLOTRIANGLE.EXE" /INCREMENTAL /NOLOGO /LIBPATH:"D:\OpenGL Nelzkie\Pre compiled binaries\glew-1.13.0-win32\glew-1.13.0\lib\Release\Win32" /LIBPATH:"D:\OpenGL Nelzkie\Pre compiled binaries\glfw-3.1.1.bin.WIN32\glfw-3.1.1.bin.WIN32\lib-vc2013" opengl32.lib glfw3.lib glew32s.lib kernel32.lib user32.lib gdi32.lib winspool.lib comdlg32.lib advapi32.lib shell32.lib ole32.lib oleaut32.lib uuid.lib odbc32.lib odbccp32.lib /MANIFEST /MANIFESTUAC:"level='asInvoker' uiAccess='false'" /manifest:embed /DEBUG /PDB:"D:\OPENGL NELZKIE\GETTING STARTED\HELLO TRIANGLE - PART_2_USING INDICES\DEBUG\HELLOTRIANGLE.PDB" /SUBSYSTEM:CONSOLE /TLBID:1 /DYNAMICBASE /NXCOMPAT /IMPLIB:"D:\OPENGL NELZKIE\GETTING STARTED\HELLO TRIANGLE - PART_2_USING INDICES\DEBUG\HELLOTRIANGLE.LIB" /MACHINE:X86 DEBUG\HELLOTRIANGLE.OBJ
^D:\OPENGL NELZKIE\GETTING STARTED\SHADERS\WIN32PROJECT2\DEBUG\HELLOTRIANGLE.OBJ
/OUT:"D:\OPENGL NELZKIE\GETTING STARTED\SHADERS\DEBUG\HELLOTRIANGLE.EXE" /INCREMENTAL /NOLOGO /LIBPATH:"D:\OpenGL Nelzkie\Pre compiled binaries\glew-1.13.0-win32\glew-1.13.0\lib\Release\Win32" /LIBPATH:"D:\OpenGL Nelzkie\Pre compiled binaries\glfw-3.1.1.bin.WIN32\glfw-3.1.1.bin.WIN32\lib-vc2013" opengl32.lib glfw3.lib glew32s.lib kernel32.lib user32.lib gdi32.lib winspool.lib comdlg32.lib advapi32.lib shell32.lib ole32.lib oleaut32.lib uuid.lib odbc32.lib odbccp32.lib /MANIFEST /MANIFESTUAC:"level='asInvoker' uiAccess='false'" /manifest:embed /DEBUG /PDB:"D:\OPENGL NELZKIE\GETTING STARTED\SHADERS\DEBUG\HELLOTRIANGLE.PDB" /SUBSYSTEM:CONSOLE /TLBID:1 /DYNAMICBASE /NXCOMPAT /IMPLIB:"D:\OPENGL NELZKIE\GETTING STARTED\SHADERS\DEBUG\HELLOTRIANGLE.LIB" /MACHINE:X86 DEBUG\HELLOTRIANGLE.OBJ
^D:\OPENGL NELZKIE\GETTING STARTED\SHADERS - PART_2_MORE_ATTRIBUTES\WIN32PROJECT2\DEBUG\HELLOTRIANGLE.OBJ
/OUT:"D:\OPENGL NELZKIE\GETTING STARTED\SHADERS - PART_2_MORE_ATTRIBUTES\DEBUG\HELLOTRIANGLE.EXE" /INCREMENTAL /NOLOGO /LIBPATH:"D:\OpenGL Nelzkie\Pre compiled binaries\glew-1.13.0-win32\glew-1.13.0\lib\Release\Win32" /LIBPATH:"D:\OpenGL Nelzkie\Pre compiled binaries\glfw-3.1.1.bin.WIN32\glfw-3.1.1.bin.WIN32\lib-vc2013" opengl32.lib glfw3.lib glew32s.lib kernel32.lib user32.lib gdi32.lib winspool.lib comdlg32.lib advapi32.lib shell32.lib ole32.lib oleaut32.lib uuid.lib odbc32.lib odbccp32.lib /MANIFEST /MANIFESTUAC:"level='asInvoker' uiAccess='false'" /manifest:embed /DEBUG /PDB:"D:\OPENGL NELZKIE\GETTING STARTED\SHADERS - PART_2_MORE_ATTRIBUTES\DEBUG\HELLOTRIANGLE.PDB" /SUBSYSTEM:CONSOLE /TLBID:1 /DYNAMICBASE /NXCOMPAT /IMPLIB:"D:\OPENGL NELZKIE\GETTING STARTED\SHADERS - PART_2_MORE_ATTRIBUTES\DEBUG\HELLOTRIANGLE.LIB" /MACHINE:X86 DEBUG\HELLOTRIANGLE.OBJ
^D:\OPENGL NELZKIE\GETTING STARTED\SHADERS - PART_2_MORE_ATTRIBUTES - COPY\WIN32PROJECT2\DEBUG\HELLOTRIANGLE.OBJ
/OUT:"D:\OPENGL NELZKIE\GETTING STARTED\SHADERS - PART_2_MORE_ATTRIBUTES - COPY\DEBUG\HELLOTRIANGLE.EXE" /INCREMENTAL /NOLOGO /LIBPATH:"C:\Users\Bellchan\Downloads\Compressed\soil\Simple OpenGL Image Library\lib" /LIBPATH:"D:\OpenGL Nelzkie\Pre compiled binaries\glew-1.13.0-win32\glew-1.13.0\lib\Release\Win32" /LIBPATH:"D:\OpenGL Nelzkie\Pre compiled binaries\glfw-3.1.1.bin.WIN32\glfw-3.1.1.bin.WIN32\lib-vc2013" SOIL.lib opengl32.lib glfw3.lib glew32s.lib kernel32.lib user32.lib gdi32.lib winspool.lib comdlg32.lib advapi32.lib shell32.lib ole32.lib oleaut32.lib uuid.lib odbc32.lib odbccp32.lib /MANIFEST /MANIFESTUAC:"level='asInvoker' uiAccess='false'" /manifest:embed /DEBUG /PDB:"D:\OPENGL NELZKIE\GETTING STARTED\SHADERS - PART_2_MORE_ATTRIBUTES - COPY\DEBUG\HELLOTRIANGLE.PDB" /SUBSYSTEM:CONSOLE /TLBID:1 /DYNAMICBASE /NXCOMPAT /IMPLIB:"D:\OPENGL NELZKIE\GETTING STARTED\SHADERS - PART_2_MORE_ATTRIBUTES - COPY\DEBUG\HELLOTRIANGLE.LIB" /MACHINE:X86 DEBUG\HELLOTRIANGLE.OBJ
^D:\OPENGL NELZKIE\GETTING STARTED\SHADERS - PART_3_TEXTURE_MORE_TEXTURES\WIN32PROJECT2\DEBUG\HELLOTRIANGLE.OBJ
/OUT:"D:\OPENGL NELZKIE\GETTING STARTED\SHADERS - PART_3_TEXTURE_MORE_TEXTURES\DEBUG\HELLOTRIANGLE.EXE" /INCREMENTAL /NOLOGO /LIBPATH:"C:\Users\Bellchan\Downloads\Compressed\soil\Simple OpenGL Image Library\lib" /LIBPATH:"D:\OpenGL Nelzkie\Pre compiled binaries\glew-1.13.0-win32\glew-1.13.0\lib\Release\Win32" /LIBPATH:"D:\OpenGL Nelzkie\Pre compiled binaries\glfw-3.1.1.bin.WIN32\glfw-3.1.1.bin.WIN32\lib-vc2013" SOIL.lib opengl32.lib glfw3.lib glew32s.lib kernel32.lib user32.lib gdi32.lib winspool.lib comdlg32.lib advapi32.lib shell32.lib ole32.lib oleaut32.lib uuid.lib odbc32.lib odbccp32.lib /MANIFEST /MANIFESTUAC:"level='asInvoker' uiAccess='false'" /manifest:embed /DEBUG /PDB:"D:\OPENGL NELZKIE\GETTING STARTED\SHADERS - PART_3_TEXTURE_MORE_TEXTURES\DEBUG\HELLOTRIANGLE.PDB" /SUBSYSTEM:CONSOLE /TLBID:1 /DYNAMICBASE /NXCOMPAT /IMPLIB:"D:\OPENGL NELZKIE\GETTING STARTED\SHADERS - PART_3_TEXTURE_MORE_TEXTURES\DEBUG\HELLOTRIANGLE.LIB" /MACHINE:X86 DEBUG\HELLOTRIANGLE.OBJ
^D:\OPENGL NELZKIE\GETTING STARTED\OPENGL- PART_4_MATHEMATICS\WIN32PROJECT2\DEBUG\HELLOTRIANGLE.OBJ
/OUT:"D:\OPENGL NELZKIE\GETTING STARTED\OPENGL- PART_4_MATHEMATICS\DEBUG\HELLOTRIANGLE.EXE" /INCREMENTAL /NOLOGO /LIBPATH:"C:\Users\Bellchan\Downloads\Compressed\soil\Simple OpenGL Image Library\lib" /LIBPATH:"D:\OpenGL Nelzkie\Pre compiled binaries\glew-1.13.0-win32\glew-1.13.0\lib\Release\Win32" /LIBPATH:"D:\OpenGL Nelzkie\Pre compiled binaries\glfw-3.1.1.bin.WIN32\glfw-3.1.1.bin.WIN32\lib-vc2013" SOIL.lib opengl32.lib glfw3.lib glew32s.lib kernel32.lib user32.lib gdi32.lib winspool.lib comdlg32.lib advapi32.lib shell32.lib ole32.lib oleaut32.lib uuid.lib odbc32.lib odbccp32.lib /MANIFEST /MANIFESTUAC:"level='asInvoker' uiAccess='false'" /manifest:embed /DEBUG /PDB:"D:\OPENGL NELZKIE\GETTING STARTED\OPENGL- PART_4_MATHEMATICS\DEBUG\HELLOTRIANGLE.PDB" /SUBSYSTEM:CONSOLE /TLBID:1 /DYNAMICBASE /NXCOMPAT /IMPLIB:"D:\OPENGL NELZKIE\GETTING STARTED\OPENGL- PART_4_MATHEMATICS\DEBUG\HELLOTRIANGLE.LIB" /MACHINE:X86 DEBUG\HELLOTRIANGLE.OBJ
^D:\OPENGL NELZKIE\GETTING STARTED\OPENGL- PART_5_COORDINATE_SYSTEM\WIN32PROJECT2\DEBUG\HELLOTRIANGLE.OBJ
/OUT:"D:\OPENGL NELZKIE\GETTING STARTED\OPENGL- PART_5_COORDINATE_SYSTEM\DEBUG\HELLOTRIANGLE.EXE" /INCREMENTAL /NOLOGO /LIBPATH:"C:\Users\Bellchan\Downloads\Compressed\soil\Simple OpenGL Image Library\lib" /LIBPATH:"D:\OpenGL Nelzkie\Pre compiled binaries\glew-1.13.0-win32\glew-1.13.0\lib\Release\Win32" /LIBPATH:"D:\OpenGL Nelzkie\Pre compiled binaries\glfw-3.1.1.bin.WIN32\glfw-3.1.1.bin.WIN32\lib-vc2013" SOIL.lib opengl32.lib glfw3.lib glew32s.lib kernel32.lib user32.lib gdi32.lib winspool.lib comdlg32.lib advapi32.lib shell32.lib ole32.lib oleaut32.lib uuid.lib odbc32.lib odbccp32.lib /MANIFEST /MANIFESTUAC:"level='asInvoker' uiAccess='false'" /manifest:embed /DEBUG /PDB:"D:\OPENGL NELZKIE\GETTING STARTED\OPENGL- PART_5_COORDINATE_SYSTEM\DEBUG\HELLOTRIANGLE.PDB" /SUBSYSTEM:CONSOLE /TLBID:1 /DYNAMICBASE /NXCOMPAT /IMPLIB:"D:\OPENGL NELZKIE\GETTING STARTED\OPENGL- PART_5_COORDINATE_SYSTEM\DEBUG\HELLOTRIANGLE.LIB" /MACHINE:X86 DEBUG\HELLOTRIANGLE.OBJ
