^C:\USERS\BELLCHAN\DOCUMENTS\VISUAL STUDIO 2013\PROJECTS\WIN32PROJECT2\WIN32PROJECT2\DEBUG\SOURCE.OBJ
C:\USERS\BELLCHAN\DOCUMENTS\VISUAL STUDIO 2013\PROJECTS\WIN32PROJECT2\DEBUG\WIN32PROJECT2.ILK
C:\USERS\BELLCHAN\DOCUMENTS\VISUAL STUDIO 2013\PROJECTS\WIN32PROJECT2\DEBUG\WIN32PROJECT2.EXE
C:\USERS\BELLCHAN\DOCUMENTS\VISUAL STUDIO 2013\PROJECTS\WIN32PROJECT2\DEBUG\WIN32PROJECT2.PDB
^D:\OPENGL NELZKIE\GETTING STARTED\HELLO TRIANGLE\WIN32PROJECT2\DEBUG\SOURCE.OBJ
D:\OPENGL NELZKIE\GETTING STARTED\HELLO TRIANGLE\DEBUG\WIN32PROJECT2.ILK
D:\OPENGL NELZKIE\GETTING STARTED\HELLO TRIANGLE\DEBUG\WIN32PROJECT2.EXE
D:\OPENGL NELZKIE\GETTING STARTED\HELLO TRIANGLE\DEBUG\WIN32PROJECT2.PDB
