^C:\USERS\BELLCHAN\DOCUMENTS\VISUAL STUDIO 2013\PROJECTS\WIN32PROJECT2\OPENGL_CREATINGWINDOW\SOURCE.CPP
C:\USERS\BELLCHAN\DOCUMENTS\VISUAL STUDIO 2013\PROJECTS\WIN32PROJECT2\OPENGL_CREATINGWINDOW\DEBUG\VC120.PDB
C:\USERS\BELLCHAN\DOCUMENTS\VISUAL STUDIO 2013\PROJECTS\WIN32PROJECT2\OPENGL_CREATINGWINDOW\DEBUG\VC120.IDB
